{
  "db": "PostgreSQL",
  "0993c1ba682bba1304a4a28f3075750fad78f9a4ac054532b158f2f07278fc71": {
    "describe": {
      "columns": [
        {
          "name": "id",
          "ordinal": 0,
          "type_info": "Uuid"
        },
        {
          "name": "email",
          "ordinal": 1,
          "type_info": "Varchar"
        },
        {
          "name": "date_creation",
          "ordinal": 2,
          "type_info": "Timestamptz"
        },
        {
          "name": "password_hash",
          "ordinal": 3,
          "type_info": "Varchar"
        }
      ],
      "nullable": [
        false,
        false,
        false,
        false
      ],
      "parameters": {
        "Left": [
          "UuidArray",
          "VarcharArray"
        ]
      }
    },
    "query": "\n                    select id, email, date_creation, password_hash \n                    from t_user\n                    where 1=1 -- used to align following `and` clauses\n                        and ($1::uuid[] is null or id = any($1))\n                        and ($2::varchar[] is null or email = any($2))\n                ;"
  },
  "28d349db7b8c2d89c32a7e35e14f5dda4310f28961821f474370d41e4dd40460": {
    "describe": {
      "columns": [],
      "nullable": [],
      "parameters": {
        "Left": [
          "Uuid",
          "Varchar",
          "Timestamptz",
          "Varchar"
        ]
      }
    },
    "query": "insert into t_user(id, email, date_creation, password_hash) values ($1, $2, $3, $4);"
  },
  "3099d17ce8402291e6a09cfcdb39f786a8f4785f8e5834426bcf166aae478705": {
    "describe": {
      "columns": [
        {
          "name": "value!",
          "ordinal": 0,
          "type_info": "Int8"
        }
      ],
      "nullable": [
        null
      ],
      "parameters": {
        "Left": []
      }
    },
    "query": "select count(*) as \"value!\" from t_user;"
  },
  "adc9a47f41786ca43fd4fc0b6ef01234b406e5b98840096f0064d78a7c87633d": {
    "describe": {
      "columns": [],
      "nullable": [],
      "parameters": {
        "Left": [
          "UuidArray"
        ]
      }
    },
    "query": "\n                    delete from t_user \n                    where $1::uuid[] is null or id = any($1)\n                ;"
  }
}